appdirs==1.4.3
asn1crypto==0.24.0
astroid==1.6.0
bcrypt==3.1.4
certifi==2017.11.5
cffi==1.11.2
chardet==3.0.4
colorama==0.3.9
coverage==4.4.2
cryptography==2.1.4
defusedxml==0.5.0
Django==1.9.7
django-cors-headers==1.1.0
django-filter==0.13.0
djangorestframework==3.3.3
djangorestframework-xml==1.3.0
drfdocs==0.0.11
ecdsa==0.13
enum-compat==0.0.2
eventlet==0.24.1
Fabric3==1.13.1.post1
greenlet==0.4.12
gunicorn==19.9.0
idna==2.6
isort==4.2.15
lazy-object-proxy==1.3.1
mccabe==0.6.1
MiniMock==1.2.8
mock==2.0.0
mongoengine==0.15.0
newrelic==2.98.0.81
olefile==0.44
packaging==16.8
paramiko==2.4.0
pbr==3.1.1
Pillow==5.0.0
pika==0.12.0
pyasn1==0.4.2
pycparser==2.18
pycrypto==2.6.1
PyJWT==1.5.3
pylint==1.6.4
pymongo==3.3.0
pymssql==2.1.3
PyNaCl==1.2.1
pyparsing==2.2.0
python-firebase==1.2
pytz==2017.3
redis==2.10.6
redlock-py==1.0.8
retrying==1.3.3
requests==2.18.4
selenium==3.8.0
six==1.11.0
SQLAlchemy==1.2.0
suds-jurko==0.6
untangle==1.1.1
urllib3==1.22
wheel==0.26.0
wrapt==1.10.11
xmltodict==0.11.0
protobuf==3.0.0b2
Pyrebase==3.0.27
django-redis-cache==1.7.1
paho-mqtt==1.3.1
untangle==1.1.1
django-extensions==2.1.4
